<svg xmlns="http://www.w3.org/2000/svg" width="52" height="53" viewBox="0 0 52 53">
    <g fill="none" fill-rule="evenodd">
        <path fill="#49565D" d="M37.82 48.813l-8.859-8.915 8.86-8.919 1.52 1.528-7.342 7.39 7.342 7.39z"/>
        <path fill="#49565D" d="M30.479 40.978h21.28v-2.161H30.48zM42.988 24.052l-1.52-1.527 7.34-7.392-7.34-7.388 1.52-1.527 8.859 8.915z"/>
        <path fill="#49565D" d="M29.047 16.214h21.28v-2.16h-21.28zM21.23 37.615h.029-.03zM10.358 50.271h2.081l7.717-12.956v-6.76c0-2.582-2.087-4.682-4.653-4.682H7.26c-2.565 0-4.653 2.1-4.653 4.682v6.76l7.752 12.956zm2.688 2.16H9.751c-.378 0-.728-.198-.92-.524L.614 38.171c-.1-.167-.155-.36-.155-.556v-7.06c0-3.772 3.052-6.843 6.8-6.843h8.244c3.751 0 6.8 3.071 6.8 6.843v7.06c0 .196-.054.39-.154.556l-8.184 13.736a1.07 1.07 0 0 1-.919.525zM4.623 8.489v5.769c0 3.619 2.926 6.564 6.523 6.564h.47c3.596 0 6.525-2.945 6.525-6.564v-5.77H4.623zm6.992 14.494h-.47c-4.781 0-8.67-3.913-8.67-8.725v-7.93h17.813v7.93c0 4.812-3.89 8.725-8.673 8.725z"/>
        <path fill="#49565D" d="M11.382 18.346c-1.54 0-2.95-.98-3.505-2.435a1.086 1.086 0 0 1 .621-1.394 1.075 1.075 0 0 1 1.389.622c.48 1.27 2.508 1.27 2.99 0a1.08 1.08 0 0 1 1.388-.622c.553.213.83.835.621 1.394-.564 1.479-1.938 2.435-3.504 2.435M6.365 46.399a1.078 1.078 0 0 1-1.074-1.08V33.183c0-.596.481-1.08 1.074-1.08.593 0 1.074.484 1.074 1.08v12.134c0 .597-.481 1.08-1.074 1.08M16.4 46.399a1.078 1.078 0 0 1-1.073-1.08V33.183c0-.596.481-1.08 1.074-1.08.593 0 1.074.484 1.074 1.08v12.134c0 .597-.481 1.08-1.074 1.08"/>
        <path fill="#676DFD" d="M19.214 1.645H7.379c-2.116 0-3.83 1.726-3.83 3.853v1.91h15.665V1.645z"/>
        <path fill="#49565D" d="M4.623 6.328H18.14V2.726H7.38a2.769 2.769 0 0 0-2.758 2.772v.83zm15.665 2.16H2.475v-2.99c0-2.72 2.202-4.933 4.905-4.933h12.908v7.924z"/>
    </g>
</svg>
