[{
    "id": "foot-traffic",
    "title": "Foot Traffic",
    "body": "How many people visit your center, tenants, and competitors",
    "imgSrc": "/static-assets/capabilities-images/foot-traffic-graph.svg",
    "mobImg": "/static-assets/capabilities-images/foot-traffic-graph-mobile.svg"
  },
  {
    "id": "trade-area",
    "title": "Trade Area",
    "body": "trade-area How many people visit your center, tenants, and competitors",
    "imgSrc": "/static-assets/capabilities-images/foot-traffic-graph.svg",
    "mobImg": "/static-assets/capabilities-images/foot-traffic-graph-mobile.svg"
  },
  {
    "id": "audience",
    "title": "Audience",
    "body": "audience How many people visit your center, tenants, and competitors",
    "imgSrc": "/static-assets/capabilities-images/foot-traffic-graph.svg",
    "mobImg": "/static-assets/capabilities-images/foot-traffic-graph-mobile.svg"
  },
  {
    "id": "customer-journey",
    "title": "Customer Journey",
    "body": "customer-journey How many people visit your center, tenants, and competitors",
    "imgSrc": "/static-assets/capabilities-images/foot-traffic-graph.svg",
    "mobImg": "/static-assets/capabilities-images/foot-traffic-graph-mobile.svg"
  },
  {
    "id": "portfolio",
    "title": "Portfolio",
    "body": "portfolio How many people visit your center, tenants, and competitors",
    "imgSrc": "/static-assets/capabilities-images/foot-traffic-graph.svg",
    "mobImg": "/static-assets/capabilities-images/foot-traffic-graph-mobile.svg"
  }
]