<svg xmlns="http://www.w3.org/2000/svg" width="80" height="80" viewBox="0 0 80 80">
    <g fill="none" fill-rule="evenodd">
        <circle cx="40" cy="40" r="40" fill="#E9E9F3"/>
        <path stroke="#5E63E4" stroke-width="1.5" d="M25.583 36.75v-7a4 4 0 0 1 4-4h1.292M25.583 44.75v7a4 4 0 0 0 4 4h1.292M21.583 40.75a4 4 0 0 0 4-4M21.583 40.75a4 4 0 0 1 4 4M22.583 40.75H21M54 44.75v7a4 4 0 0 1-4 4h-1.292M54 36.75v-7a4 4 0 0 0-4-4h-1.292M58 40.75a4 4 0 0 0-4 4M58 40.75a4 4 0 0 1-4-4M57 40.75h1.583"/>
        <path fill="#FFF" d="M41.875 40.75a2 2 0 1 1-4.001-.001 2 2 0 0 1 4.001.001"/>
        <path stroke="#5E63E4" stroke-width="1.5" d="M41.875 40.75a2 2 0 1 1-4.001-.001 2 2 0 0 1 4.001.001z"/>
        <path fill="#FFF" d="M34.542 40.75a2 2 0 1 1-4.001-.001 2 2 0 0 1 4.001.001"/>
        <path stroke="#5E63E4" stroke-width="1.5" d="M34.542 40.75a2 2 0 1 1-4.001-.001 2 2 0 0 1 4.001.001z"/>
        <path fill="#FFF" d="M49.208 40.75a2 2 0 1 1-4.001-.001 2 2 0 0 1 4.001.001"/>
        <path stroke="#5E63E4" stroke-width="1.5" d="M49.208 40.75a2 2 0 1 1-4.001-.001 2 2 0 0 1 4.001.001z"/>
    </g>
</svg>
