<svg xmlns="http://www.w3.org/2000/svg" xmlns:xlink="http://www.w3.org/1999/xlink" width="154" height="47" viewBox="0 0 154 47">
    <defs>
        <path id="a" d="M.267.16h13.595v16.507H.267z"/>
    </defs>
    <g fill="none" fill-rule="evenodd">
        <path fill="#333" d="M125.485 32.494h4.63v-4.45h-4.63zM85.191 20.484c.775-2.445 2.545-3.765 5.033-4.136 1.761-.262 3.51-.172 5.223.384.456.149.653.295.653.295s.164 2.462.229 3.463c-1.429-.552-2.845-.851-4.32-.82-1.675.036-2.728.831-3.124 2.45-.658 2.659 0 4.76 0 4.76.396 1.62 1.45 2.415 3.124 2.45 1.475.032 2.891-.267 4.32-.82-.065 1.002-.229 3.464-.229 3.464s-.197.146-.653.294c-1.713.557-3.462.647-5.223.385-2.488-.371-4.215-1.637-5.033-4.136-.74-2.261-.67-5.748 0-8.033"/>
        <g transform="translate(68.667 16.14)">
            <mask id="b" fill="#fff">
                <use xlink:href="#a"/>
            </mask>
            <path fill="#333" d="M6.386 9.7c-1.23 0-2.173.562-2.173 1.88 0 1.035.438 1.682 1.429 1.893.807.155 1.643.18 2.485-.032.91-.23 1.574-.873 1.714-1.801.092-.613.088-1.352.088-1.94H6.386zm4.122 6.669s-.4-1.152-.579-1.625c-1.225 1.919-3.101 1.978-5.01 1.904-.924-.035-1.809-.277-2.6-.778C.91 14.98.353 13.62.274 12.03.14 9.29 1.655 7.474 4.386 7.12c.74-.096 1.495-.1 2.243-.113 1.08-.017 2.194-.004 3.306-.004 0 0 .05-1.262-.186-1.99C9.38 3.88 8.062 3.648 7.063 3.614c-2.634-.09-5.502.58-5.502.58L2.176.696C4.741.258 7.49-.155 10.066.509c2.175.56 3.437 2.078 3.698 4.307.055.467.094.94.095 1.41.008 3.265 0 10.143 0 10.143h-3.351z" mask="url(#b)"/>
        </g>
        <path fill="#333" d="M133.421 32.494h3.894V16.536h-3.894zM62.757 32.508h4.001V10.333l-4.001.761zM53.086 21.076h-3.751v-6.817h3.751c2.087.107 3.168 1.566 3.168 3.41 0 2.05-1.267 3.279-3.168 3.407m0-10.493H45v21.925h4.335v-7.753h3.751c3.914 0 7.42-1.917 7.42-7.086 0-5.168-3.506-7.086-7.42-7.086M153.96 24.522c0 1.363.059 4.341-1.764 6.356-1.599 1.768-4.433 1.909-5.291 1.909-.859 0-3.693-.14-5.292-1.909-1.822-2.015-1.763-4.993-1.763-6.356 0-1.364-.06-4.342 1.763-6.357 1.6-1.768 4.433-1.908 5.292-1.908.858 0 3.692.14 5.291 1.908 1.823 2.015 1.764 4.993 1.764 6.357zm-3.943 0c0-3.76-1.164-4.877-3.112-4.877-1.95 0-3.112 1.117-3.112 4.877s1.163 4.876 3.112 4.876c1.948 0 3.112-1.117 3.112-4.876zM118.183 18.309l-.446-1.793h-3.359v15.965h3.916v-8.936s.016-.64.058-.954a3.344 3.344 0 0 1 3.098-2.92c.858-.045 1.56.056 2.251.297l.637-3.365c-2.585-.848-4.769-.205-6.155 1.706M108.419 23.056c-.07-2.219-1.093-3.585-3.254-3.582-2.138.004-3.212 1.598-3.216 3.582h6.47zm2.893 5.555l-.573 3.491c-2.47.7-5.358.995-7.964.28-2.243-.616-3.725-2.058-4.352-4.285-.702-2.499-.7-5.026.112-7.505.883-2.7 2.852-4.068 5.627-4.33 1.363-.128 2.723-.057 4.025.424 1.98.731 3.06 2.245 3.597 4.218.427 1.573.357 3.18.322 4.836h-10.143c-.107 1.932.96 3.091 2.46 3.431 1.476.335 2.955.214 4.425-.039.828-.143 1.604-.334 2.464-.52zM133.406 14.272V10.584h3.925v3.688z"/>
        <g fill="#5E63E5">
            <path d="M10.5 18A1.5 1.5 0 0 1 9 16.5v-3a1.5 1.5 0 1 1 3 0v3a1.5 1.5 0 0 1-1.5 1.5M22.5 18a1.5 1.5 0 0 1-1.5-1.5v-3a1.5 1.5 0 1 1 3 0v3a1.5 1.5 0 0 1-1.5 1.5"/>
            <path d="M16.5 27C10.148 27 5 21.584 5 14.902c0-1.134.152-2.23.43-3.272v.08C6.067 9.56 7.971 8 10.225 8 13.002 8 15 10.368 15 13.29v5.558c0 .82.665 1.485 1.485 1.485h.03c.82 0 1.485-.665 1.485-1.485V13.29C18 10.37 19.997 8 22.774 8c2.254 0 4.158 1.561 4.797 3.71v-.08c.277 1.041.43 2.138.43 3.272C28 21.584 22.85 27 16.5 27zm4.5 4.502C21 32.33 20.33 33 19.502 33h-.004A1.498 1.498 0 0 1 18 31.502v-.65c0-.054.07-.066.088-.016a1.5 1.5 0 0 0 1.41.99h.004a1.5 1.5 0 0 0 1.41-.99c.017-.05.088-.038.088.015v.651zm-3 3C18 35.33 17.33 36 16.502 36h-.004A1.498 1.498 0 0 1 15 34.502v-.65c0-.054.07-.066.088-.016a1.5 1.5 0 0 0 1.41.99h.004a1.5 1.5 0 0 0 1.41-.99c.017-.05.088-.038.088.015v.651zM13.502 33h-.004A1.498 1.498 0 0 1 12 31.502v-.65c0-.054.07-.066.088-.016a1.5 1.5 0 0 0 1.41.99h.004a1.5 1.5 0 0 0 1.41-.99c.017-.05.088-.038.088.015v.651C15 32.33 14.33 33 13.502 33zM30.265 6.537L30.908 3h-6.057c-3.81 0-7.056 2.383-8.35 5.735C15.204 5.383 11.957 3 8.147 3H2.092l.643 3.537C.972 9.074 0 12.208 0 15.712 0 31.828 16.5 42 16.5 42S33 31.828 33 15.712c0-3.504-.972-6.638-2.735-9.175zM23 46c0 .552-2.91 1-6.5 1s-6.5-.448-6.5-1c0-.553 2.91-1 6.5-1s6.5.447 6.5 1"/>
            <path d="M16.5 6.32C18.071 3.733 20.906 2 24.154 2h.965C22.701.725 19.803 0 16.5 0s-6.2.724-8.619 2h.965c3.248 0 6.083 1.733 7.654 4.32"/>
        </g>
    </g>
</svg>
