[{
    "id": 1,
    "author": "Gene Lee",
    "post": "SVP Chief Analytics Officer",
    "content": "The Placer team and their data have been a great help in better understanding our customers. We’re working closely with their Data Science team to address our core business challenges as well as the more complex business-critical",
    "logo": "/static-assets/sponsors-carousel/caesars@3x.png"
  },
  {
    "id": 2,
    "author": "Stephen Lavin",
    "post": "Chief Technology Officer",
    "content": "Placer is bringing Foot-traffic analytics to a new level. We’re big fans!",
    "logo": "/static-assets/sponsors-carousel/redbox-logo-2017@3x.png"
  },
  {
    "id": 3,
    "author": "Marq Lipton",
    "post": "Vice President Marketing & Sales",
    "content": "Accurate and trustworthy data about our visitors is tremendously important to us as we design and refine our marketing programs. In the past, this data has been elusive to us. Placer is giving us the data we need by providing ongoing critical information.",
    "logo": "/static-assets/sponsors-carousel/boardwalk-logo-white-outline-ds@3x.png"
  }
]