[{
    "img": "/static-assets/shopping-page-decisions-cards/marketing-icon.svg",
    "title": "Marketing",
    "list": [
      "Build data driven marketing strategies across channels",
      "Understand, track, and grow your target audience",
      "Find untapped audiences likely to show interest in your shopping center and tenants"
    ]
  },
  {
    "img": "/static-assets/shopping-page-decisions-cards/acquisition-icon.svg",
    "title": "Acquisition",
    "list": [
      "Find potential properties by analyzing your industry & competitors",
      "Conduct du-diligence by benchmarking target property dominance vs competition",
      "Discover key metrics into anchor tenants"
    ]
  },
  {
    "img": "/static-assets/shopping-page-decisions-cards/leasing-icon.svg",
    "title": "Leasing",
    "list": [
      "Optimizing Tenant Mix to increase shopping center appeal.",
      "Land key tenants with insight-led pitches.",
      "Understand current tenant \"health\" vs local competition"
    ]
  },
  {
    "img": "/static-assets/shopping-page-decisions-cards/management-icon.svg",
    "title": "Management",
    "list": [
      "Analyze the statistics & market share of any shopping center or retailer",
      "Identify new competitors and emerging industry trends",
      "Drive market expansion and M&A strategies"
    ]
  }
]