<svg xmlns="http://www.w3.org/2000/svg" width="16" height="2" viewBox="0 0 16 2">
    <path fill="none" fill-rule="evenodd" stroke="#5E63E4" stroke-linecap="square" stroke-width="2" d="M1 1h14"/>
</svg>
