<svg xmlns="http://www.w3.org/2000/svg" width="16" height="16" viewBox="0 0 16 16">
    <g fill="none" fill-rule="evenodd" stroke="#5E63E4" stroke-linecap="square" stroke-width="2">
        <path d="M8 1v14M1 8h14"/>
    </g>
</svg>
