<svg xmlns="http://www.w3.org/2000/svg" width="60" height="60" viewBox="0 0 60 60">
    <g fill="none" fill-rule="evenodd">
        <path fill="#E6E6E6" d="M45 30c0 8.284-6.716 15-15 15-8.284 0-15-6.716-15-15 0-8.284 6.716-15 15-15 8.284 0 15 6.716 15 15"/>
        <path fill="#49565D" d="M26.463 34.32c.89 1.15 2.084 2.17 4.083 2.17 1.52 0 3.126-1.086 3.126-2.846 0-2.757-3.257-3.06-5.473-4.429-1.128-.696-2.062-1.585-2.062-3.126 0-2.369 1.89-3.998 4.322-3.998 1.955 0 3.19.913 3.886 1.521l-.824.955c-.89-.78-1.76-1.238-3.02-1.238-1.693 0-3.06 1.044-3.06 2.694 0 2.302 3.06 2.606 5.233 3.952 1.259.781 2.302 1.91 2.302 3.67 0 2.41-1.955 4.083-4.43 4.083-2.02 0-3.736-.846-5.04-2.562l.957-.847z"/>
        <path stroke="#49565D" stroke-width=".9" d="M26.463 34.32c.89 1.15 2.084 2.17 4.083 2.17 1.52 0 3.126-1.086 3.126-2.846 0-2.757-3.257-3.06-5.473-4.429-1.128-.696-2.062-1.585-2.062-3.126 0-2.369 1.89-3.998 4.322-3.998 1.955 0 3.19.913 3.886 1.521l-.824.955c-.89-.78-1.76-1.238-3.02-1.238-1.693 0-3.06 1.044-3.06 2.694 0 2.302 3.06 2.606 5.233 3.952 1.259.781 2.302 1.91 2.302 3.67 0 2.41-1.955 4.083-4.43 4.083-2.02 0-3.736-.846-5.04-2.562l.957-.847z"/>
        <path stroke="#49565D" stroke-width="2" d="M30 38v3M30 19v3M30 3v5M30 52v5M57 29h-5M8 29H3"/>
        <g opacity=".2">
            <path fill="#676DFD" d="M19 50a2 2 0 1 0-4.001.001A2 2 0 0 0 19 50M60 49.5a6.5 6.5 0 1 0-13 0 6.5 6.5 0 0 0 13 0"/>
            <path stroke="#676DFD" d="M12 7a4 4 0 1 0-8 0 4 4 0 0 0 8 0zM43.5 56.5a3 3 0 1 0-6 0 3 3 0 0 0 6 0zM43.5 2.5a2 2 0 1 0-4.001.001A2 2 0 0 0 43.5 2.5z"/>
            <path fill="#676DFD" d="M5.5 17.25a1.25 1.25 0 1 0-2.5 0 1.25 1.25 0 0 0 2.5 0M10 55a5 5 0 1 0-10 0 5 5 0 0 0 10 0M57 9.5a4.5 4.5 0 1 0-9 0 4.5 4.5 0 0 0 9 0"/>
        </g>
        <path stroke="#49565D" stroke-linecap="round" stroke-width="2" d="M46 30c0 8.837-7.163 16-16 16s-16-7.163-16-16 7.163-16 16-16 16 7.163 16 16z"/>
    </g>
</svg>
